{
  "project_info": {
    "project_number": "662674882889",
    "firebase_url": "https://fir-chareh.firebaseio.com",
    "project_id": "firebase-chareh",
    "storage_bucket": "firebase-chareh.appspot.com"
  },
  "client": [
    {
      "client_info": {
        "mobilesdk_app_id": "1:662674882889:android:c8c71a22587a016b",
        "android_client_info": {
          "package_name": "ir.gov.chareh.sare_ham"
        }
      },
      "oauth_client": [
        {
          "client_id": "662674882889-gpr7fi6hqovbgfrofm9sosahv4uvs53m.apps.googleusercontent.com",
          "client_type": 3
        }
      ],
      "api_key": [
        {
          "current_key": "AIzaSyBsxbtgUwaINIWrxaizMRO9X4xBrTQ7CL0"
        }
      ],
      "services": {
        "analytics_service": {
          "status": 2,
          "analytics_property": {
            "tracking_id": "UA-113094394-1"
          }
        },
        "appinvite_service": {
          "status": 1,
          "other_platform_oauth_client": []
        },
        "ads_service": {
          "status": 1
        }
      }
    }
  ],
  "configuration_version": "1"
}